{
  "mask_rcnn_cityscapes_training_2": {
    "cityscapes_dataset": {
      "metrics": {
        "AP(bbox)/IoU=0.5:0.95": 0.3515275704775802,
        "AP(segm)/IoU=0.5:0.95": 0.2534709338122858,
        "AP(bbox)/IoU=0.5": 0.6288732805721109,
        "AP(segm)/IoU=0.5": 0.551996879064166,
        "AP(bbox)/IoU=0.75": 0.3545325196436285,
        "AP(segm)/IoU=0.75": 0.20107214489392353,
        "AP(bbox)/small": 0.15210296556015182,
        "AP(segm)/small": 0.062445872887152025,
        "AP(bbox)/medium": 0.5105110642377836,
        "AP(segm)/medium": 0.3595444794643965,
        "AP(bbox)/large": 0.6646586922940119,
        "AP(segm)/large": 0.599987954016213,
        "AR(bbox)/maxDets=1": 0.07575677809949988,
        "AR(segm)/maxDets=1": 0.06012108449591998,
        "AR(bbox)/maxDets=10": 0.3304553829955251,
        "AR(segm)/maxDets=10": 0.256593840484338,
        "AR(bbox)/maxDets=100": 0.4458804948670704,
        "AR(segm)/maxDets=100": 0.3295340879178731,
        "AR(bbox)/small": 0.25218111540585314,
        "AR(segm)/small": 0.1605742683600221,
        "AR(bbox)/medium": 0.5945255474452554,
        "AR(segm)/medium": 0.44659367396593674,
        "AR(bbox)/large": 0.7689855072463768,
        "AR(segm)/large": 0.6579710144927536
      },
      "time": 0.37278322424052246
    }
  },
  "mask_rcnn_cityscapes_training_0": {
    "cityscapes_dataset": {
      "metrics": {
        "AP(bbox)/IoU=0.5:0.95": 0.33675493668788137,
        "AP(segm)/IoU=0.5:0.95": 0.2458120790919189,
        "AP(bbox)/IoU=0.5": 0.6172296719622041,
        "AP(segm)/IoU=0.5": 0.5381691267062679,
        "AP(bbox)/IoU=0.75": 0.3322472346562327,
        "AP(segm)/IoU=0.75": 0.19203725222631676,
        "AP(bbox)/small": 0.14890526372011997,
        "AP(segm)/small": 0.05522143696755873,
        "AP(bbox)/medium": 0.49617512606527225,
        "AP(segm)/medium": 0.3502722637082638,
        "AP(bbox)/large": 0.63823184021757,
        "AP(segm)/large": 0.5952244979671454,
        "AR(bbox)/maxDets=1": 0.07341405633061332,
        "AR(segm)/maxDets=1": 0.05927875756778099,
        "AR(bbox)/maxDets=10": 0.32195314556462223,
        "AR(segm)/maxDets=10": 0.2510397473019216,
        "AR(bbox)/maxDets=100": 0.4316662279547249,
        "AR(segm)/maxDets=100": 0.32376941300342194,
        "AR(bbox)/small": 0.23771397018221974,
        "AR(segm)/small": 0.15427940364439538,
        "AR(bbox)/medium": 0.5820559610705596,
        "AR(segm)/medium": 0.4416058394160583,
        "AR(bbox)/large": 0.748695652173913,
        "AR(segm)/large": 0.6510144927536232
      },
      "time": 0.36663306872774093
    }
  },
  "mask_rcnn_cityscapes_training_1": {
    "cityscapes_dataset": {
      "metrics": {
        "AP(bbox)/IoU=0.5:0.95": 0.34972207100308295,
        "AP(segm)/IoU=0.5:0.95": 0.2516041370872275,
        "AP(bbox)/IoU=0.5": 0.6278710383675792,
        "AP(segm)/IoU=0.5": 0.5471628866675314,
        "AP(bbox)/IoU=0.75": 0.35137702086839057,
        "AP(segm)/IoU=0.75": 0.19917374220265396,
        "AP(bbox)/small": 0.14917347289436195,
        "AP(segm)/small": 0.058932574166056975,
        "AP(bbox)/medium": 0.5085790523018897,
        "AP(segm)/medium": 0.3575275073258177,
        "AP(bbox)/large": 0.6635933890261176,
        "AP(segm)/large": 0.5982811501229153,
        "AR(bbox)/maxDets=1": 0.07573045538299553,
        "AR(segm)/maxDets=1": 0.05967359831534615,
        "AR(bbox)/maxDets=10": 0.32906027902079493,
        "AR(segm)/maxDets=10": 0.2545406685969992,
        "AR(bbox)/maxDets=100": 0.44214266912345346,
        "AR(segm)/maxDets=100": 0.3267702026849171,
        "AR(bbox)/small": 0.2473219215902816,
        "AR(segm)/small": 0.15831032578685808,
        "AR(bbox)/medium": 0.5922749391727494,
        "AR(segm)/medium": 0.4434306569343066,
        "AR(bbox)/large": 0.7652173913043478,
        "AR(segm)/large": 0.6544927536231885
      },
      "time": 0.3677984055191075
    }
  }
}
