{
  "mask_rcnn_cityscapes_training_adam_3": {
    "cityscapes_dataset": {
      "metrics": {
        "AP(bbox)/IoU=0.5:0.95": 0.3512189311755577,
        "AP(segm)/IoU=0.5:0.95": 0.26296564254039634,
        "AP(bbox)/IoU=0.5": 0.6416856310514737,
        "AP(segm)/IoU=0.5": 0.5704626538055863,
        "AP(bbox)/IoU=0.75": 0.3506438407889974,
        "AP(segm)/IoU=0.75": 0.20857136026163367,
        "AP(bbox)/small": 0.16612523268562399,
        "AP(segm)/small": 0.07239361282932848,
        "AP(bbox)/medium": 0.5040971294511675,
        "AP(segm)/medium": 0.3825112440190069,
        "AP(bbox)/large": 0.6278588097247485,
        "AP(segm)/large": 0.5644127892615584,
        "AR(bbox)/maxDets=1": 0.07549355093445644,
        "AR(segm)/maxDets=1": 0.06370097394051066,
        "AR(bbox)/maxDets=10": 0.3284022111081864,
        "AR(segm)/maxDets=10": 0.26164780205317195,
        "AR(bbox)/maxDets=100": 0.4441431955777836,
        "AR(segm)/maxDets=100": 0.3409055014477494,
        "AR(bbox)/small": 0.2622860298177802,
        "AR(segm)/small": 0.17001656543346216,
        "AR(bbox)/medium": 0.5925790754257907,
        "AR(segm)/medium": 0.4674574209245742,
        "AR(bbox)/large": 0.704927536231884,
        "AR(segm)/large": 0.6339130434782609
      },
      "time": 0.3655705251020288
    }
  },
  "mask_rcnn_cityscapes_training_adam_5": {
    "cityscapes_dataset": {
      "metrics": {
        "AP(bbox)/IoU=0.5:0.95": 0.3533584119596544,
        "AP(segm)/IoU=0.5:0.95": 0.26945152384682636,
        "AP(bbox)/IoU=0.5": 0.6427553913586154,
        "AP(segm)/IoU=0.5": 0.5743515981030607,
        "AP(bbox)/IoU=0.75": 0.3509727816232781,
        "AP(segm)/IoU=0.75": 0.22418315877895323,
        "AP(bbox)/small": 0.16700298454171966,
        "AP(segm)/small": 0.07690375480328623,
        "AP(bbox)/medium": 0.5108123725987942,
        "AP(segm)/medium": 0.3831751158624054,
        "AP(bbox)/large": 0.656247880296522,
        "AP(segm)/large": 0.5901825718914628,
        "AR(bbox)/maxDets=1": 0.07686233219268228,
        "AR(segm)/maxDets=1": 0.06435904185311925,
        "AR(bbox)/maxDets=10": 0.33203474598578575,
        "AR(segm)/maxDets=10": 0.2687022900763359,
        "AR(bbox)/maxDets=100": 0.42903395630429053,
        "AR(segm)/maxDets=100": 0.33148196893919457,
        "AR(bbox)/small": 0.23025952512424075,
        "AR(segm)/small": 0.15681943677526228,
        "AR(bbox)/medium": 0.5885644768856447,
        "AR(segm)/medium": 0.45851581508515815,
        "AR(bbox)/large": 0.7292753623188406,
        "AR(segm)/large": 0.6423188405797101
      },
      "time": 0.3290516596991815
    }
  },
  "mask_rcnn_cityscapes_training_adam_7": {
    "cityscapes_dataset": {
      "metrics": {
        "AP(bbox)/IoU=0.5:0.95": 0.36220000577736133,
        "AP(segm)/IoU=0.5:0.95": 0.27020337776921166,
        "AP(bbox)/IoU=0.5": 0.6544893440381847,
        "AP(segm)/IoU=0.5": 0.5742652419576508,
        "AP(bbox)/IoU=0.75": 0.36472651446877163,
        "AP(segm)/IoU=0.75": 0.23068630939161017,
        "AP(bbox)/small": 0.17572940863172087,
        "AP(segm)/small": 0.07146628492535127,
        "AP(bbox)/medium": 0.5127411649148536,
        "AP(segm)/medium": 0.3805797892221029,
        "AP(bbox)/large": 0.6538140126106268,
        "AP(segm)/large": 0.618031625284958,
        "AR(bbox)/maxDets=1": 0.07680968675967359,
        "AR(segm)/maxDets=1": 0.06425375098710187,
        "AR(bbox)/maxDets=10": 0.33735193471966307,
        "AR(segm)/maxDets=10": 0.2697288760200052,
        "AR(bbox)/maxDets=100": 0.44127401947881023,
        "AR(segm)/maxDets=100": 0.33195577783627267,
        "AR(bbox)/small": 0.2536720044174489,
        "AR(segm)/small": 0.16112644947542795,
        "AR(bbox)/medium": 0.5860097323600973,
        "AR(segm)/medium": 0.45127737226277376,
        "AR(bbox)/large": 0.7518840579710144,
        "AR(segm)/large": 0.6597101449275361
      },
      "time": 0.3373754420964756
    }
  }
}
